%TF.GenerationSoftware,KiCad,Pcbnew,5.1.10*%
%TF.CreationDate,2021-05-09T19:57:16+02:00*%
%TF.ProjectId,VGA_character_terminal_6845_v6,5647415f-6368-4617-9261-637465725f74,6.0.1*%
%TF.SameCoordinates,Original*%
%TF.FileFunction,Soldermask,Top*%
%TF.FilePolarity,Negative*%
%FSLAX46Y46*%
G04 Gerber Fmt 4.6, Leading zero omitted, Abs format (unit mm)*
G04 Created by KiCad (PCBNEW 5.1.10) date 2021-05-09 19:57:16*
%MOMM*%
%LPD*%
G01*
G04 APERTURE LIST*
%ADD10O,1.700000X1.700000*%
%ADD11R,1.700000X1.700000*%
%ADD12C,1.440000*%
%ADD13C,1.600000*%
%ADD14O,1.600000X1.600000*%
%ADD15C,1.800000*%
%ADD16R,1.800000X1.800000*%
%ADD17O,3.000000X2.000000*%
%ADD18O,2.000000X3.000000*%
%ADD19C,1.397000*%
%ADD20R,1.600000X1.600000*%
%ADD21C,1.422400*%
%ADD22R,1.422400X1.422400*%
%ADD23C,1.524000*%
%ADD24C,1.478000*%
%ADD25C,1.500000*%
%ADD26C,2.000000*%
%ADD27C,4.770000*%
%ADD28C,1.785000*%
%ADD29R,3.500000X3.500000*%
%ADD30C,1.400000*%
%ADD31R,2.000000X2.000000*%
G04 APERTURE END LIST*
D10*
%TO.C,J4*%
X129565400Y-53975000D03*
D11*
X127025400Y-53975000D03*
%TD*%
D12*
%TO.C,RV6*%
X218439400Y-146552920D03*
X220979400Y-146552920D03*
X223519400Y-146552920D03*
%TD*%
%TO.C,RV5*%
X218439400Y-141091920D03*
X220979400Y-141091920D03*
X223519400Y-141091920D03*
%TD*%
%TO.C,RV4*%
X218439400Y-135629320D03*
X220979400Y-135629320D03*
X223519400Y-135629320D03*
%TD*%
%TO.C,RV3*%
X218455080Y-130169920D03*
X220995080Y-130169920D03*
X223535080Y-130169920D03*
%TD*%
%TO.C,RV2*%
X218455080Y-124708920D03*
X220995080Y-124708920D03*
X223535080Y-124708920D03*
%TD*%
%TO.C,RV1*%
X218455080Y-119247920D03*
X220995080Y-119247920D03*
X223535080Y-119247920D03*
%TD*%
D13*
%TO.C,R10*%
X79857600Y-130175000D03*
D14*
X87477600Y-130175000D03*
%TD*%
D13*
%TO.C,R9*%
X79857600Y-127127000D03*
D14*
X87477600Y-127127000D03*
%TD*%
D13*
%TO.C,R11*%
X136779000Y-54279800D03*
D14*
X144399000Y-54279800D03*
%TD*%
D15*
%TO.C,D1*%
X149225000Y-57344640D03*
D16*
X146685000Y-57344640D03*
%TD*%
D13*
%TO.C,R18*%
X247497600Y-94833600D03*
D14*
X247497600Y-87213600D03*
%TD*%
D13*
%TO.C,R14*%
X244449600Y-94833600D03*
D14*
X244449600Y-87213600D03*
%TD*%
D17*
%TO.C,J7*%
X248264000Y-66205100D03*
X248264000Y-52209700D03*
D18*
X249169428Y-59207400D03*
D19*
X245364000Y-55803800D03*
X242874800Y-55803800D03*
X245364000Y-57912000D03*
X245364000Y-60502800D03*
X245364000Y-62611000D03*
X242874800Y-62611000D03*
%TD*%
D14*
%TO.C,U12*%
X152008840Y-70866000D03*
X159628840Y-53086000D03*
X152008840Y-68326000D03*
X159628840Y-55626000D03*
X152008840Y-65786000D03*
X159628840Y-58166000D03*
X152008840Y-63246000D03*
X159628840Y-60706000D03*
X152008840Y-60706000D03*
X159628840Y-63246000D03*
X152008840Y-58166000D03*
X159628840Y-65786000D03*
X152008840Y-55626000D03*
X159628840Y-68326000D03*
X152008840Y-53086000D03*
D20*
X159628840Y-70866000D03*
%TD*%
D14*
%TO.C,U2*%
X128701800Y-127986480D03*
X121081800Y-143226480D03*
X128701800Y-130526480D03*
X121081800Y-140686480D03*
X128701800Y-133066480D03*
X121081800Y-138146480D03*
X128701800Y-135606480D03*
X121081800Y-135606480D03*
X128701800Y-138146480D03*
X121081800Y-133066480D03*
X128701800Y-140686480D03*
X121081800Y-130526480D03*
X128701800Y-143226480D03*
D20*
X121081800Y-127986480D03*
%TD*%
D14*
%TO.C,U3*%
X117353080Y-103692960D03*
X109733080Y-118932960D03*
X117353080Y-106232960D03*
X109733080Y-116392960D03*
X117353080Y-108772960D03*
X109733080Y-113852960D03*
X117353080Y-111312960D03*
X109733080Y-111312960D03*
X117353080Y-113852960D03*
X109733080Y-108772960D03*
X117353080Y-116392960D03*
X109733080Y-106232960D03*
X117353080Y-118932960D03*
D20*
X109733080Y-103692960D03*
%TD*%
D21*
%TO.C,U18*%
X128071880Y-61684640D03*
X128071880Y-64224640D03*
X128071880Y-66764640D03*
X128071880Y-69304640D03*
X128071880Y-71844640D03*
X128071880Y-74384640D03*
X128071880Y-76924640D03*
X128071880Y-79464640D03*
X125531880Y-59144640D03*
X125531880Y-64224640D03*
X125531880Y-66764640D03*
X125531880Y-69304640D03*
X125531880Y-71844640D03*
X125531880Y-74384640D03*
X125531880Y-76924640D03*
X125531880Y-79464640D03*
X125531880Y-82004640D03*
X125531880Y-84544640D03*
X122991880Y-84544640D03*
X120451880Y-84544640D03*
X117911880Y-84544640D03*
X115371880Y-84544640D03*
X112831880Y-84544640D03*
X110291880Y-84544640D03*
X107751880Y-84544640D03*
X105211880Y-84544640D03*
X128071880Y-82004640D03*
X122991880Y-82004640D03*
X120451880Y-82004640D03*
X117911880Y-82004640D03*
X115371880Y-82004640D03*
X112831880Y-82004640D03*
X110291880Y-82004640D03*
X107751880Y-82004640D03*
X105211880Y-82004640D03*
X102671880Y-82004640D03*
X102671880Y-79464640D03*
X102671880Y-76924640D03*
X102671880Y-74384640D03*
X102671880Y-71844640D03*
X102671880Y-69304640D03*
X102671880Y-66764640D03*
X102671880Y-64224640D03*
X102671880Y-61684640D03*
X105211880Y-79464640D03*
X105211880Y-76924640D03*
X105211880Y-74384640D03*
X105211880Y-71844640D03*
X105211880Y-69304640D03*
X105211880Y-66764640D03*
X105211880Y-64224640D03*
X105211880Y-61684640D03*
X122991880Y-59144640D03*
X120451880Y-59144640D03*
X117911880Y-59144640D03*
X105211880Y-59144640D03*
X107751880Y-59144640D03*
X110291880Y-59144640D03*
X112831880Y-59144640D03*
D22*
X115371880Y-59144640D03*
D21*
X125531880Y-61684640D03*
X122991880Y-61684640D03*
X120451880Y-61684640D03*
X117911880Y-61684640D03*
X107751880Y-61684640D03*
X110291880Y-61684640D03*
X112831880Y-61684640D03*
X115371880Y-61684640D03*
%TD*%
D14*
%TO.C,U7*%
X132926040Y-143286480D03*
X148166040Y-95026480D03*
X132926040Y-140746480D03*
X148166040Y-97566480D03*
X132926040Y-138206480D03*
X148166040Y-100106480D03*
X132926040Y-135666480D03*
X148166040Y-102646480D03*
X132926040Y-133126480D03*
X148166040Y-105186480D03*
X132926040Y-130586480D03*
X148166040Y-107726480D03*
X132926040Y-128046480D03*
X148166040Y-110266480D03*
X132926040Y-125506480D03*
X148166040Y-112806480D03*
X132926040Y-122966480D03*
X148166040Y-115346480D03*
X132926040Y-120426480D03*
X148166040Y-117886480D03*
X132926040Y-117886480D03*
X148166040Y-120426480D03*
X132926040Y-115346480D03*
X148166040Y-122966480D03*
X132926040Y-112806480D03*
X148166040Y-125506480D03*
X132926040Y-110266480D03*
X148166040Y-128046480D03*
X132926040Y-107726480D03*
X148166040Y-130586480D03*
X132926040Y-105186480D03*
X148166040Y-133126480D03*
X132926040Y-102646480D03*
X148166040Y-135666480D03*
X132926040Y-100106480D03*
X148166040Y-138206480D03*
X132926040Y-97566480D03*
X148166040Y-140746480D03*
X132926040Y-95026480D03*
D20*
X148166040Y-143286480D03*
%TD*%
D10*
%TO.C,J10*%
X64884300Y-66713100D03*
X64884300Y-64173100D03*
X62344300Y-66713100D03*
D11*
X62344300Y-64173100D03*
%TD*%
D23*
%TO.C,SW1*%
X63512700Y-58724800D03*
X60972700Y-58724800D03*
X66052700Y-58724800D03*
X60972700Y-53644800D03*
X66052700Y-53644800D03*
%TD*%
D14*
%TO.C,R7*%
X136769000Y-60401200D03*
D13*
X144389000Y-60401200D03*
%TD*%
D14*
%TO.C,R8*%
X144389000Y-57344640D03*
D13*
X136769000Y-57344640D03*
%TD*%
%TO.C,C21*%
X191833500Y-100894680D03*
X191833500Y-93394680D03*
%TD*%
D14*
%TO.C,R6*%
X81305400Y-105384600D03*
D13*
X73685400Y-105384600D03*
%TD*%
D20*
%TO.C,U26*%
X228371400Y-78174680D03*
D14*
X235991400Y-111194680D03*
X228371400Y-80714680D03*
X235991400Y-108654680D03*
X228371400Y-83254680D03*
X235991400Y-106114680D03*
X228371400Y-85794680D03*
X235991400Y-103574680D03*
X228371400Y-88334680D03*
X235991400Y-101034680D03*
X228371400Y-90874680D03*
X235991400Y-98494680D03*
X228371400Y-93414680D03*
X235991400Y-95954680D03*
X228371400Y-95954680D03*
X235991400Y-93414680D03*
X228371400Y-98494680D03*
X235991400Y-90874680D03*
X228371400Y-101034680D03*
X235991400Y-88334680D03*
X228371400Y-103574680D03*
X235991400Y-85794680D03*
X228371400Y-106114680D03*
X235991400Y-83254680D03*
X228371400Y-108654680D03*
X235991400Y-80714680D03*
X228371400Y-111194680D03*
X235991400Y-78174680D03*
%TD*%
%TO.C,D4*%
X227368100Y-138856720D03*
D20*
X227368100Y-146476720D03*
%TD*%
D14*
%TO.C,D3*%
X227368100Y-129065020D03*
D20*
X227368100Y-136685020D03*
%TD*%
D14*
%TO.C,D2*%
X227368100Y-119286020D03*
D20*
X227368100Y-126906020D03*
%TD*%
D13*
%TO.C,R21*%
X63594300Y-89291160D03*
D14*
X63594300Y-79131160D03*
%TD*%
D13*
%TO.C,R20*%
X63594300Y-122224800D03*
D14*
X63594300Y-112064800D03*
%TD*%
%TO.C,R4*%
X81305400Y-108458000D03*
D13*
X73685400Y-108458000D03*
%TD*%
%TO.C,R16*%
X240334800Y-104151600D03*
D14*
X240334800Y-111771600D03*
%TD*%
D13*
%TO.C,R17*%
X250545600Y-94833600D03*
D14*
X250545600Y-87213600D03*
%TD*%
D13*
%TO.C,R15*%
X224053400Y-76987240D03*
D14*
X224053400Y-69367240D03*
%TD*%
%TO.C,R13*%
X241401600Y-87213600D03*
D13*
X241401600Y-94833600D03*
%TD*%
%TO.C,R12*%
X224053400Y-89255600D03*
D14*
X224053400Y-81635600D03*
%TD*%
D13*
%TO.C,R19*%
X228361400Y-71043800D03*
D14*
X235981400Y-71043800D03*
%TD*%
%TO.C,R5*%
X73685400Y-117678200D03*
D13*
X81305400Y-117678200D03*
%TD*%
D14*
%TO.C,R3*%
X81305400Y-114604800D03*
D13*
X73685400Y-114604800D03*
%TD*%
D14*
%TO.C,R2*%
X81305400Y-120751600D03*
D13*
X73685400Y-120751600D03*
%TD*%
D14*
%TO.C,R1*%
X81305400Y-111531400D03*
D13*
X73685400Y-111531400D03*
%TD*%
D24*
%TO.C,U28*%
X64963960Y-128513840D03*
X63563960Y-127113840D03*
X62163960Y-128513840D03*
%TD*%
D25*
%TO.C,Y1*%
X246632800Y-110411600D03*
X246632800Y-105511600D03*
%TD*%
D20*
%TO.C,X2*%
X136779000Y-78644640D03*
D14*
X144399000Y-86264640D03*
X136779000Y-81184640D03*
X144399000Y-83724640D03*
X136779000Y-83724640D03*
X144399000Y-81184640D03*
X136779000Y-86264640D03*
X144399000Y-78644640D03*
%TD*%
%TO.C,X1*%
X144399000Y-64947800D03*
X136779000Y-72567800D03*
X144399000Y-67487800D03*
X136779000Y-70027800D03*
X144399000Y-70027800D03*
X136779000Y-67487800D03*
X144399000Y-72567800D03*
D20*
X136779000Y-64947800D03*
%TD*%
D14*
%TO.C,U29*%
X196758560Y-57374640D03*
X214538560Y-64994640D03*
X199298560Y-57374640D03*
X211998560Y-64994640D03*
X201838560Y-57374640D03*
X209458560Y-64994640D03*
X204378560Y-57374640D03*
X206918560Y-64994640D03*
X206918560Y-57374640D03*
X204378560Y-64994640D03*
X209458560Y-57374640D03*
X201838560Y-64994640D03*
X211998560Y-57374640D03*
X199298560Y-64994640D03*
X214538560Y-57374640D03*
D20*
X196758560Y-64994640D03*
%TD*%
D14*
%TO.C,U27*%
X196758560Y-81356200D03*
X214538560Y-88976200D03*
X199298560Y-81356200D03*
X211998560Y-88976200D03*
X201838560Y-81356200D03*
X209458560Y-88976200D03*
X204378560Y-81356200D03*
X206918560Y-88976200D03*
X206918560Y-81356200D03*
X204378560Y-88976200D03*
X209458560Y-81356200D03*
X201838560Y-88976200D03*
X211998560Y-81356200D03*
X199298560Y-88976200D03*
X214538560Y-81356200D03*
D20*
X196758560Y-88976200D03*
%TD*%
D14*
%TO.C,U25*%
X213095840Y-125436480D03*
X205475840Y-143216480D03*
X213095840Y-127976480D03*
X205475840Y-140676480D03*
X213095840Y-130516480D03*
X205475840Y-138136480D03*
X213095840Y-133056480D03*
X205475840Y-135596480D03*
X213095840Y-135596480D03*
X205475840Y-133056480D03*
X213095840Y-138136480D03*
X205475840Y-130516480D03*
X213095840Y-140676480D03*
X205475840Y-127976480D03*
X213095840Y-143216480D03*
D20*
X205475840Y-125436480D03*
%TD*%
D14*
%TO.C,U24*%
X201742040Y-105136480D03*
X186502040Y-143236480D03*
X201742040Y-107676480D03*
X186502040Y-140696480D03*
X201742040Y-110216480D03*
X186502040Y-138156480D03*
X201742040Y-112756480D03*
X186502040Y-135616480D03*
X201742040Y-115296480D03*
X186502040Y-133076480D03*
X201742040Y-117836480D03*
X186502040Y-130536480D03*
X201742040Y-120376480D03*
X186502040Y-127996480D03*
X201742040Y-122916480D03*
X186502040Y-125456480D03*
X201742040Y-125456480D03*
X186502040Y-122916480D03*
X201742040Y-127996480D03*
X186502040Y-120376480D03*
X201742040Y-130536480D03*
X186502040Y-117836480D03*
X201742040Y-133076480D03*
X186502040Y-115296480D03*
X201742040Y-135616480D03*
X186502040Y-112756480D03*
X201742040Y-138156480D03*
X186502040Y-110216480D03*
X201742040Y-140696480D03*
X186502040Y-107676480D03*
X201742040Y-143236480D03*
D20*
X186502040Y-105136480D03*
%TD*%
D14*
%TO.C,U23*%
X224434400Y-93324680D03*
X216814400Y-111104680D03*
X224434400Y-95864680D03*
X216814400Y-108564680D03*
X224434400Y-98404680D03*
X216814400Y-106024680D03*
X224434400Y-100944680D03*
X216814400Y-103484680D03*
X224434400Y-103484680D03*
X216814400Y-100944680D03*
X224434400Y-106024680D03*
X216814400Y-98404680D03*
X224434400Y-108564680D03*
X216814400Y-95864680D03*
X224434400Y-111104680D03*
D20*
X216814400Y-93324680D03*
%TD*%
D14*
%TO.C,U22*%
X164363400Y-57374640D03*
X187223400Y-64994640D03*
X166903400Y-57374640D03*
X184683400Y-64994640D03*
X169443400Y-57374640D03*
X182143400Y-64994640D03*
X171983400Y-57374640D03*
X179603400Y-64994640D03*
X174523400Y-57374640D03*
X177063400Y-64994640D03*
X177063400Y-57374640D03*
X174523400Y-64994640D03*
X179603400Y-57374640D03*
X171983400Y-64994640D03*
X182143400Y-57374640D03*
X169443400Y-64994640D03*
X184683400Y-57374640D03*
X166903400Y-64994640D03*
X187223400Y-57374640D03*
D20*
X164363400Y-64994640D03*
%TD*%
D14*
%TO.C,U21*%
X164363400Y-93324680D03*
X187223400Y-100944680D03*
X166903400Y-93324680D03*
X184683400Y-100944680D03*
X169443400Y-93324680D03*
X182143400Y-100944680D03*
X171983400Y-93324680D03*
X179603400Y-100944680D03*
X174523400Y-93324680D03*
X177063400Y-100944680D03*
X177063400Y-93324680D03*
X174523400Y-100944680D03*
X179603400Y-93324680D03*
X171983400Y-100944680D03*
X182143400Y-93324680D03*
X169443400Y-100944680D03*
X184683400Y-93324680D03*
X166903400Y-100944680D03*
X187223400Y-93324680D03*
D20*
X164363400Y-100944680D03*
%TD*%
D14*
%TO.C,U20*%
X164363400Y-69357240D03*
X187223400Y-76977240D03*
X166903400Y-69357240D03*
X184683400Y-76977240D03*
X169443400Y-69357240D03*
X182143400Y-76977240D03*
X171983400Y-69357240D03*
X179603400Y-76977240D03*
X174523400Y-69357240D03*
X177063400Y-76977240D03*
X177063400Y-69357240D03*
X174523400Y-76977240D03*
X179603400Y-69357240D03*
X171983400Y-76977240D03*
X182143400Y-69357240D03*
X169443400Y-76977240D03*
X184683400Y-69357240D03*
X166903400Y-76977240D03*
X187223400Y-69357240D03*
D20*
X164363400Y-76977240D03*
%TD*%
D14*
%TO.C,U19*%
X213095840Y-93324680D03*
X205475840Y-116184680D03*
X213095840Y-95864680D03*
X205475840Y-113644680D03*
X213095840Y-98404680D03*
X205475840Y-111104680D03*
X213095840Y-100944680D03*
X205475840Y-108564680D03*
X213095840Y-103484680D03*
X205475840Y-106024680D03*
X213095840Y-106024680D03*
X205475840Y-103484680D03*
X213095840Y-108564680D03*
X205475840Y-100944680D03*
X213095840Y-111104680D03*
X205475840Y-98404680D03*
X213095840Y-113644680D03*
X205475840Y-95864680D03*
X213095840Y-116184680D03*
D20*
X205475840Y-93324680D03*
%TD*%
D14*
%TO.C,U17*%
X164363400Y-81356200D03*
X187223400Y-88976200D03*
X166903400Y-81356200D03*
X184683400Y-88976200D03*
X169443400Y-81356200D03*
X182143400Y-88976200D03*
X171983400Y-81356200D03*
X179603400Y-88976200D03*
X174523400Y-81356200D03*
X177063400Y-88976200D03*
X177063400Y-81356200D03*
X174523400Y-88976200D03*
X179603400Y-81356200D03*
X171983400Y-88976200D03*
X182143400Y-81356200D03*
X169443400Y-88976200D03*
X184683400Y-81356200D03*
X166903400Y-88976200D03*
X187223400Y-81356200D03*
D20*
X164363400Y-88976200D03*
%TD*%
D14*
%TO.C,U16*%
X94665800Y-101117560D03*
X87045800Y-118897560D03*
X94665800Y-103657560D03*
X87045800Y-116357560D03*
X94665800Y-106197560D03*
X87045800Y-113817560D03*
X94665800Y-108737560D03*
X87045800Y-111277560D03*
X94665800Y-111277560D03*
X87045800Y-108737560D03*
X94665800Y-113817560D03*
X87045800Y-106197560D03*
X94665800Y-116357560D03*
X87045800Y-103657560D03*
X94665800Y-118897560D03*
D20*
X87045800Y-101117560D03*
%TD*%
D14*
%TO.C,U15*%
X106004360Y-101117560D03*
X98384360Y-118897560D03*
X106004360Y-103657560D03*
X98384360Y-116357560D03*
X106004360Y-106197560D03*
X98384360Y-113817560D03*
X106004360Y-108737560D03*
X98384360Y-111277560D03*
X106004360Y-111277560D03*
X98384360Y-108737560D03*
X106004360Y-113817560D03*
X98384360Y-106197560D03*
X106004360Y-116357560D03*
X98384360Y-103657560D03*
X106004360Y-118897560D03*
D20*
X98384360Y-101117560D03*
%TD*%
D14*
%TO.C,U14*%
X171617640Y-110186480D03*
X163997640Y-143206480D03*
X171617640Y-112726480D03*
X163997640Y-140666480D03*
X171617640Y-115266480D03*
X163997640Y-138126480D03*
X171617640Y-117806480D03*
X163997640Y-135586480D03*
X171617640Y-120346480D03*
X163997640Y-133046480D03*
X171617640Y-122886480D03*
X163997640Y-130506480D03*
X171617640Y-125426480D03*
X163997640Y-127966480D03*
X171617640Y-127966480D03*
X163997640Y-125426480D03*
X171617640Y-130506480D03*
X163997640Y-122886480D03*
X171617640Y-133046480D03*
X163997640Y-120346480D03*
X171617640Y-135586480D03*
X163997640Y-117806480D03*
X171617640Y-138126480D03*
X163997640Y-115266480D03*
X171617640Y-140666480D03*
X163997640Y-112726480D03*
X171617640Y-143206480D03*
D20*
X163997640Y-110186480D03*
%TD*%
D14*
%TO.C,U13*%
X182946040Y-110186480D03*
X175326040Y-143206480D03*
X182946040Y-112726480D03*
X175326040Y-140666480D03*
X182946040Y-115266480D03*
X175326040Y-138126480D03*
X182946040Y-117806480D03*
X175326040Y-135586480D03*
X182946040Y-120346480D03*
X175326040Y-133046480D03*
X182946040Y-122886480D03*
X175326040Y-130506480D03*
X182946040Y-125426480D03*
X175326040Y-127966480D03*
X182946040Y-127966480D03*
X175326040Y-125426480D03*
X182946040Y-130506480D03*
X175326040Y-122886480D03*
X182946040Y-133046480D03*
X175326040Y-120346480D03*
X182946040Y-135586480D03*
X175326040Y-117806480D03*
X182946040Y-138126480D03*
X175326040Y-115266480D03*
X182946040Y-140666480D03*
X175326040Y-112726480D03*
X182946040Y-143206480D03*
D20*
X175326040Y-110186480D03*
%TD*%
D14*
%TO.C,U11*%
X152008840Y-94996000D03*
X159628840Y-77216000D03*
X152008840Y-92456000D03*
X159628840Y-79756000D03*
X152008840Y-89916000D03*
X159628840Y-82296000D03*
X152008840Y-87376000D03*
X159628840Y-84836000D03*
X152008840Y-84836000D03*
X159628840Y-87376000D03*
X152008840Y-82296000D03*
X159628840Y-89916000D03*
X152008840Y-79756000D03*
X159628840Y-92456000D03*
X152008840Y-77216000D03*
D20*
X159628840Y-94996000D03*
%TD*%
D14*
%TO.C,U10*%
X152008840Y-119126000D03*
X159628840Y-101346000D03*
X152008840Y-116586000D03*
X159628840Y-103886000D03*
X152008840Y-114046000D03*
X159628840Y-106426000D03*
X152008840Y-111506000D03*
X159628840Y-108966000D03*
X152008840Y-108966000D03*
X159628840Y-111506000D03*
X152008840Y-106426000D03*
X159628840Y-114046000D03*
X152008840Y-103886000D03*
X159628840Y-116586000D03*
X152008840Y-101346000D03*
D20*
X159628840Y-119126000D03*
%TD*%
D14*
%TO.C,U9*%
X152008840Y-143236480D03*
X159628840Y-125456480D03*
X152008840Y-140696480D03*
X159628840Y-127996480D03*
X152008840Y-138156480D03*
X159628840Y-130536480D03*
X152008840Y-135616480D03*
X159628840Y-133076480D03*
X152008840Y-133076480D03*
X159628840Y-135616480D03*
X152008840Y-130536480D03*
X159628840Y-138156480D03*
X152008840Y-127996480D03*
X159628840Y-140696480D03*
X152008840Y-125456480D03*
D20*
X159628840Y-143236480D03*
%TD*%
D14*
%TO.C,U8*%
X89565480Y-90494640D03*
X97185480Y-57474640D03*
X89565480Y-87954640D03*
X97185480Y-60014640D03*
X89565480Y-85414640D03*
X97185480Y-62554640D03*
X89565480Y-82874640D03*
X97185480Y-65094640D03*
X89565480Y-80334640D03*
X97185480Y-67634640D03*
X89565480Y-77794640D03*
X97185480Y-70174640D03*
X89565480Y-75254640D03*
X97185480Y-72714640D03*
X89565480Y-72714640D03*
X97185480Y-75254640D03*
X89565480Y-70174640D03*
X97185480Y-77794640D03*
X89565480Y-67634640D03*
X97185480Y-80334640D03*
X89565480Y-65094640D03*
X97185480Y-82874640D03*
X89565480Y-62554640D03*
X97185480Y-85414640D03*
X89565480Y-60014640D03*
X97185480Y-87954640D03*
X89565480Y-57474640D03*
D20*
X97185480Y-90494640D03*
%TD*%
D14*
%TO.C,U4*%
X196758560Y-69357240D03*
X211998560Y-76977240D03*
X199298560Y-69357240D03*
X209458560Y-76977240D03*
X201838560Y-69357240D03*
X206918560Y-76977240D03*
X204378560Y-69357240D03*
X204378560Y-76977240D03*
X206918560Y-69357240D03*
X201838560Y-76977240D03*
X209458560Y-69357240D03*
X199298560Y-76977240D03*
X211998560Y-69357240D03*
D20*
X196758560Y-76977240D03*
%TD*%
D14*
%TO.C,U6*%
X70591680Y-95544640D03*
X85831680Y-57444640D03*
X70591680Y-93004640D03*
X85831680Y-59984640D03*
X70591680Y-90464640D03*
X85831680Y-62524640D03*
X70591680Y-87924640D03*
X85831680Y-65064640D03*
X70591680Y-85384640D03*
X85831680Y-67604640D03*
X70591680Y-82844640D03*
X85831680Y-70144640D03*
X70591680Y-80304640D03*
X85831680Y-72684640D03*
X70591680Y-77764640D03*
X85831680Y-75224640D03*
X70591680Y-75224640D03*
X85831680Y-77764640D03*
X70591680Y-72684640D03*
X85831680Y-80304640D03*
X70591680Y-70144640D03*
X85831680Y-82844640D03*
X70591680Y-67604640D03*
X85831680Y-85384640D03*
X70591680Y-65064640D03*
X85831680Y-87924640D03*
X70591680Y-62524640D03*
X85831680Y-90464640D03*
X70591680Y-59984640D03*
X85831680Y-93004640D03*
X70591680Y-57444640D03*
D20*
X85831680Y-95544640D03*
%TD*%
D14*
%TO.C,U5*%
X128701800Y-103692960D03*
X121081800Y-118932960D03*
X128701800Y-106232960D03*
X121081800Y-116392960D03*
X128701800Y-108772960D03*
X121081800Y-113852960D03*
X128701800Y-111312960D03*
X121081800Y-111312960D03*
X128701800Y-113852960D03*
X121081800Y-108772960D03*
X128701800Y-116392960D03*
X121081800Y-106232960D03*
X128701800Y-118932960D03*
D20*
X121081800Y-103692960D03*
%TD*%
D14*
%TO.C,U1*%
X117353080Y-127986480D03*
X109733080Y-143226480D03*
X117353080Y-130526480D03*
X109733080Y-140686480D03*
X117353080Y-133066480D03*
X109733080Y-138146480D03*
X117353080Y-135606480D03*
X109733080Y-135606480D03*
X117353080Y-138146480D03*
X109733080Y-133066480D03*
X117353080Y-140686480D03*
X109733080Y-130526480D03*
X117353080Y-143226480D03*
D20*
X109733080Y-127986480D03*
%TD*%
D26*
%TO.C,SW2*%
X65844300Y-100901640D03*
X61344300Y-100901640D03*
X65844300Y-94401640D03*
X61344300Y-94401640D03*
%TD*%
D14*
%TO.C,RN1*%
X121391680Y-54117240D03*
X118851680Y-54117240D03*
X116311680Y-54117240D03*
X113771680Y-54117240D03*
X111231680Y-54117240D03*
X108691680Y-54117240D03*
X106151680Y-54117240D03*
X103611680Y-54117240D03*
D20*
X101071680Y-54117240D03*
%TD*%
D11*
%TO.C,J9*%
X57302400Y-151599900D03*
D10*
X54762400Y-151599900D03*
X57302400Y-149059900D03*
X54762400Y-149059900D03*
X57302400Y-146519900D03*
X54762400Y-146519900D03*
X57302400Y-143979900D03*
X54762400Y-143979900D03*
X57302400Y-141439900D03*
X54762400Y-141439900D03*
X57302400Y-138899900D03*
X54762400Y-138899900D03*
X57302400Y-136359900D03*
X54762400Y-136359900D03*
X57302400Y-133819900D03*
X54762400Y-133819900D03*
X57302400Y-131279900D03*
X54762400Y-131279900D03*
X57302400Y-128739900D03*
X54762400Y-128739900D03*
X57302400Y-126199900D03*
X54762400Y-126199900D03*
X57302400Y-123659900D03*
X54762400Y-123659900D03*
X57302400Y-121119900D03*
X54762400Y-121119900D03*
X57302400Y-118579900D03*
X54762400Y-118579900D03*
X57302400Y-116039900D03*
X54762400Y-116039900D03*
X57302400Y-113499900D03*
X54762400Y-113499900D03*
X57302400Y-110959900D03*
X54762400Y-110959900D03*
X57302400Y-108419900D03*
X54762400Y-108419900D03*
X57302400Y-105879900D03*
X54762400Y-105879900D03*
X57302400Y-103339900D03*
X54762400Y-103339900D03*
X57302400Y-100799900D03*
X54762400Y-100799900D03*
X57302400Y-98259900D03*
X54762400Y-98259900D03*
X57302400Y-95719900D03*
X54762400Y-95719900D03*
X57302400Y-93179900D03*
X54762400Y-93179900D03*
X57302400Y-90639900D03*
X54762400Y-90639900D03*
X57302400Y-88099900D03*
X54762400Y-88099900D03*
X57302400Y-85559900D03*
X54762400Y-85559900D03*
X57302400Y-83019900D03*
X54762400Y-83019900D03*
X57302400Y-80479900D03*
X54762400Y-80479900D03*
X57302400Y-77939900D03*
X54762400Y-77939900D03*
X57302400Y-75399900D03*
X54762400Y-75399900D03*
X57302400Y-72859900D03*
X54762400Y-72859900D03*
X57302400Y-70319900D03*
X54762400Y-70319900D03*
X57302400Y-67779900D03*
X54762400Y-67779900D03*
X57302400Y-65239900D03*
X54762400Y-65239900D03*
X57302400Y-62699900D03*
X54762400Y-62699900D03*
X57302400Y-60159900D03*
X54762400Y-60159900D03*
X57302400Y-57619900D03*
X54762400Y-57619900D03*
X57302400Y-55079900D03*
X54762400Y-55079900D03*
X57302400Y-52539900D03*
D11*
X54762400Y-52539900D03*
%TD*%
D27*
%TO.C,J8*%
X236601000Y-145984160D03*
X236601000Y-120984160D03*
D28*
X239141000Y-138329160D03*
X239141000Y-136039160D03*
X239141000Y-133749160D03*
X239141000Y-131459160D03*
X239141000Y-129169160D03*
X236601000Y-137184160D03*
X236601000Y-134894160D03*
X236601000Y-132604160D03*
X236601000Y-130314160D03*
X236601000Y-128024160D03*
X234061000Y-138329160D03*
X234061000Y-136039160D03*
X234061000Y-133749160D03*
X234061000Y-131459160D03*
X234061000Y-129169160D03*
%TD*%
D17*
%TO.C,J6*%
X248264000Y-82766681D03*
X248264000Y-68771281D03*
D18*
X249169428Y-75768981D03*
D19*
X245364000Y-72365381D03*
X242874800Y-72365381D03*
X245364000Y-74473581D03*
X245364000Y-77064381D03*
X245364000Y-79172581D03*
X242874800Y-79172581D03*
%TD*%
D29*
%TO.C,J5*%
X63896240Y-135910320D03*
G36*
G01*
X64896240Y-143410320D02*
X62896240Y-143410320D01*
G75*
G02*
X62146240Y-142660320I0J750000D01*
G01*
X62146240Y-141160320D01*
G75*
G02*
X62896240Y-140410320I750000J0D01*
G01*
X64896240Y-140410320D01*
G75*
G02*
X65646240Y-141160320I0J-750000D01*
G01*
X65646240Y-142660320D01*
G75*
G02*
X64896240Y-143410320I-750000J0D01*
G01*
G37*
G36*
G01*
X69471240Y-140660320D02*
X67721240Y-140660320D01*
G75*
G02*
X66846240Y-139785320I0J875000D01*
G01*
X66846240Y-138035320D01*
G75*
G02*
X67721240Y-137160320I875000J0D01*
G01*
X69471240Y-137160320D01*
G75*
G02*
X70346240Y-138035320I0J-875000D01*
G01*
X70346240Y-139785320D01*
G75*
G02*
X69471240Y-140660320I-875000J0D01*
G01*
G37*
%TD*%
D10*
%TO.C,J3*%
X74396600Y-129921000D03*
X76936600Y-129921000D03*
X74396600Y-127381000D03*
D11*
X76936600Y-127381000D03*
%TD*%
D10*
%TO.C,J2*%
X90716100Y-140677900D03*
X88176100Y-140677900D03*
X85636100Y-140677900D03*
X83096100Y-140677900D03*
X80556100Y-140677900D03*
D11*
X78016100Y-140677900D03*
%TD*%
D10*
%TO.C,J1*%
X80556100Y-137033000D03*
D11*
X78016100Y-137033000D03*
%TD*%
D15*
%TO.C,D5*%
X64859300Y-73301860D03*
D16*
X62319300Y-73301860D03*
%TD*%
D30*
%TO.C,C31*%
X62344300Y-106705400D03*
X64844300Y-106705400D03*
%TD*%
D13*
%TO.C,C30*%
X248382800Y-115490280D03*
X243382800Y-115490280D03*
%TD*%
%TO.C,C29*%
X248382800Y-100431600D03*
X243382800Y-100431600D03*
%TD*%
%TO.C,C28*%
X219176600Y-57444640D03*
X219176600Y-64944640D03*
%TD*%
%TO.C,C27*%
X219179140Y-81742900D03*
X219179140Y-89242900D03*
%TD*%
%TO.C,C26*%
X159578840Y-74041000D03*
X152078840Y-74041000D03*
%TD*%
%TO.C,C25*%
X205525840Y-147129500D03*
X213025840Y-147129500D03*
%TD*%
%TO.C,C24*%
X186632200Y-147129500D03*
X194132200Y-147129500D03*
%TD*%
%TO.C,C23*%
X216864400Y-114980720D03*
X224364400Y-114980720D03*
%TD*%
%TO.C,C22*%
X191820800Y-64944640D03*
X191820800Y-57444640D03*
%TD*%
%TO.C,C20*%
X191820800Y-76927240D03*
X191820800Y-69427240D03*
%TD*%
%TO.C,C19*%
X205525840Y-120614440D03*
X213025840Y-120614440D03*
%TD*%
%TO.C,C18*%
X107921880Y-89994740D03*
X100421880Y-89994740D03*
%TD*%
%TO.C,C17*%
X191820800Y-88926200D03*
X191820800Y-81426200D03*
%TD*%
%TO.C,C16*%
X235921400Y-74498200D03*
X228421400Y-74498200D03*
%TD*%
%TO.C,C15*%
X98443400Y-122669300D03*
X105943400Y-122669300D03*
%TD*%
%TO.C,C14*%
X164047640Y-147129500D03*
X171547640Y-147129500D03*
%TD*%
%TO.C,C13*%
X175376040Y-147129500D03*
X182876040Y-147129500D03*
%TD*%
%TO.C,C12*%
X159578840Y-147101560D03*
X152078840Y-147101560D03*
%TD*%
%TO.C,C11*%
X159578840Y-122301000D03*
X152078840Y-122301000D03*
%TD*%
%TO.C,C10*%
X159578840Y-98171000D03*
X152078840Y-98171000D03*
%TD*%
%TO.C,C9*%
X121004800Y-146984720D03*
X128504800Y-146984720D03*
%TD*%
%TO.C,C8*%
X97131520Y-94366080D03*
X89631520Y-94366080D03*
%TD*%
%TO.C,C7*%
X219179140Y-76927240D03*
X219179140Y-69427240D03*
%TD*%
%TO.C,C6*%
X148166040Y-146984720D03*
X140666040Y-146984720D03*
%TD*%
%TO.C,C5*%
X70078600Y-99428300D03*
X77578600Y-99428300D03*
%TD*%
%TO.C,C4*%
X109783080Y-122669300D03*
X117283080Y-122669300D03*
%TD*%
%TO.C,C3*%
X87095800Y-122669300D03*
X94595800Y-122669300D03*
%TD*%
%TO.C,C2*%
X109656080Y-146984720D03*
X117156080Y-146984720D03*
%TD*%
%TO.C,C1*%
X121131800Y-122669300D03*
X128631800Y-122669300D03*
%TD*%
D26*
%TO.C,BZ1*%
X233295200Y-59563000D03*
D31*
X228295200Y-59563000D03*
%TD*%
M02*
