PCBNEW-LibModule-V1  2020-09-26 13:30:03
# encoding utf-8
Units mm
$INDEX
DIP864W51P254L3169H381Q24N
$EndINDEX
$MODULE DIP864W51P254L3169H381Q24N
Po 0 0 0 15 5f6f344b 00000000 ~~
Li DIP864W51P254L3169H381Q24N
Cd PDIP-24
Kw Integrated Circuit
Sc 0
At STD
AR 
Op 0 0 0
T0 0 0 1.27 1.27 0 0.254 N V 21 N "IC**"
T1 0 0 1.27 1.27 0 0.254 N I 21 N "DIP864W51P254L3169H381Q24N"
DS -5.503 -16.19 5.503 -16.19 0.05 24
DS 5.503 -16.19 5.503 16.19 0.05 24
DS 5.503 16.19 -5.503 16.19 0.05 24
DS -5.503 16.19 -5.503 -16.19 0.05 24
DS -4.065 -15.94 4.065 -15.94 0.1 24
DS 4.065 -15.94 4.065 15.94 0.1 24
DS 4.065 15.94 -4.065 15.94 0.1 24
DS -4.065 15.94 -4.065 -15.94 0.1 24
DS -4.065 -14.67 -2.795 -15.94 0.1 24
DS -4.872 -15.94 4.065 -15.94 0.2 21
DS -4.065 15.94 4.065 15.94 0.2 21
$PAD
Po -4.318 -13.97
Sh "1" R 1.108 1.108 0 0 900
Dr 0.708 0 0
At STD N 00E0FFFF
Ne 0 ""
$EndPAD
$PAD
Po -4.318 -11.43
Sh "2" C 1.108 1.108 0 0 900
Dr 0.708 0 0
At STD N 00E0FFFF
Ne 0 ""
$EndPAD
$PAD
Po -4.318 -8.89
Sh "3" C 1.108 1.108 0 0 900
Dr 0.708 0 0
At STD N 00E0FFFF
Ne 0 ""
$EndPAD
$PAD
Po -4.318 -6.35
Sh "4" C 1.108 1.108 0 0 900
Dr 0.708 0 0
At STD N 00E0FFFF
Ne 0 ""
$EndPAD
$PAD
Po -4.318 -3.81
Sh "5" C 1.108 1.108 0 0 900
Dr 0.708 0 0
At STD N 00E0FFFF
Ne 0 ""
$EndPAD
$PAD
Po -4.318 -1.27
Sh "6" C 1.108 1.108 0 0 900
Dr 0.708 0 0
At STD N 00E0FFFF
Ne 0 ""
$EndPAD
$PAD
Po -4.318 1.27
Sh "7" C 1.108 1.108 0 0 900
Dr 0.708 0 0
At STD N 00E0FFFF
Ne 0 ""
$EndPAD
$PAD
Po -4.318 3.81
Sh "8" C 1.108 1.108 0 0 900
Dr 0.708 0 0
At STD N 00E0FFFF
Ne 0 ""
$EndPAD
$PAD
Po -4.318 6.35
Sh "9" C 1.108 1.108 0 0 900
Dr 0.708 0 0
At STD N 00E0FFFF
Ne 0 ""
$EndPAD
$PAD
Po -4.318 8.89
Sh "10" C 1.108 1.108 0 0 900
Dr 0.708 0 0
At STD N 00E0FFFF
Ne 0 ""
$EndPAD
$PAD
Po -4.318 11.43
Sh "11" C 1.108 1.108 0 0 900
Dr 0.708 0 0
At STD N 00E0FFFF
Ne 0 ""
$EndPAD
$PAD
Po -4.318 13.97
Sh "12" C 1.108 1.108 0 0 900
Dr 0.708 0 0
At STD N 00E0FFFF
Ne 0 ""
$EndPAD
$PAD
Po 4.318 13.97
Sh "13" C 1.108 1.108 0 0 900
Dr 0.708 0 0
At STD N 00E0FFFF
Ne 0 ""
$EndPAD
$PAD
Po 4.318 11.43
Sh "14" C 1.108 1.108 0 0 900
Dr 0.708 0 0
At STD N 00E0FFFF
Ne 0 ""
$EndPAD
$PAD
Po 4.318 8.89
Sh "15" C 1.108 1.108 0 0 900
Dr 0.708 0 0
At STD N 00E0FFFF
Ne 0 ""
$EndPAD
$PAD
Po 4.318 6.35
Sh "16" C 1.108 1.108 0 0 900
Dr 0.708 0 0
At STD N 00E0FFFF
Ne 0 ""
$EndPAD
$PAD
Po 4.318 3.81
Sh "17" C 1.108 1.108 0 0 900
Dr 0.708 0 0
At STD N 00E0FFFF
Ne 0 ""
$EndPAD
$PAD
Po 4.318 1.27
Sh "18" C 1.108 1.108 0 0 900
Dr 0.708 0 0
At STD N 00E0FFFF
Ne 0 ""
$EndPAD
$PAD
Po 4.318 -1.27
Sh "19" C 1.108 1.108 0 0 900
Dr 0.708 0 0
At STD N 00E0FFFF
Ne 0 ""
$EndPAD
$PAD
Po 4.318 -3.81
Sh "20" C 1.108 1.108 0 0 900
Dr 0.708 0 0
At STD N 00E0FFFF
Ne 0 ""
$EndPAD
$PAD
Po 4.318 -6.35
Sh "21" C 1.108 1.108 0 0 900
Dr 0.708 0 0
At STD N 00E0FFFF
Ne 0 ""
$EndPAD
$PAD
Po 4.318 -8.89
Sh "22" C 1.108 1.108 0 0 900
Dr 0.708 0 0
At STD N 00E0FFFF
Ne 0 ""
$EndPAD
$PAD
Po 4.318 -11.43
Sh "23" C 1.108 1.108 0 0 900
Dr 0.708 0 0
At STD N 00E0FFFF
Ne 0 ""
$EndPAD
$PAD
Po 4.318 -13.97
Sh "24" C 1.108 1.108 0 0 900
Dr 0.708 0 0
At STD N 00E0FFFF
Ne 0 ""
$EndPAD
$EndMODULE DIP864W51P254L3169H381Q24N
$EndLIBRARY
