PCBNEW-LibModule-V1  2020-08-17 19:32:23
# encoding utf-8
Units mm
$INDEX
DIP794W56P254L3467H457Q28N
$EndINDEX
$MODULE DIP794W56P254L3467H457Q28N
Po 0 0 0 15 5f3acd37 00000000 ~~
Li DIP794W56P254L3467H457Q28N
Cd 71256SA12TPG_1
Kw Integrated Circuit
Sc 0
At STD
AR 
Op 0 0 0
T0 0 0 1.27 1.27 0 0.254 N V 21 N "IC**"
T1 0 0 1.27 1.27 0 0.254 N I 21 N "DIP794W56P254L3467H457Q28N"
DS -4.96 -17.84 4.96 -17.84 0.05 24
DS 4.96 -17.84 4.96 17.84 0.05 24
DS 4.96 17.84 -4.96 17.84 0.05 24
DS -4.96 17.84 -4.96 -17.84 0.05 24
DS -3.745 -17.59 3.745 -17.59 0.1 24
DS 3.745 -17.59 3.745 17.59 0.1 24
DS 3.745 17.59 -3.745 17.59 0.1 24
DS -3.745 17.59 -3.745 -17.59 0.1 24
DS -3.745 -16.32 -2.475 -17.59 0.1 24
DS -4.55 -17.59 3.745 -17.59 0.2 21
DS -3.745 17.59 3.745 17.59 0.2 21
$PAD
Po -3.97 -16.51
Sh "1" R 1.16 1.16 0 0 900
Dr 0.76 0 0
At STD N 00E0FFFF
Ne 0 ""
$EndPAD
$PAD
Po -3.97 -13.97
Sh "2" C 1.16 1.16 0 0 900
Dr 0.76 0 0
At STD N 00E0FFFF
Ne 0 ""
$EndPAD
$PAD
Po -3.97 -11.43
Sh "3" C 1.16 1.16 0 0 900
Dr 0.76 0 0
At STD N 00E0FFFF
Ne 0 ""
$EndPAD
$PAD
Po -3.97 -8.89
Sh "4" C 1.16 1.16 0 0 900
Dr 0.76 0 0
At STD N 00E0FFFF
Ne 0 ""
$EndPAD
$PAD
Po -3.97 -6.35
Sh "5" C 1.16 1.16 0 0 900
Dr 0.76 0 0
At STD N 00E0FFFF
Ne 0 ""
$EndPAD
$PAD
Po -3.97 -3.81
Sh "6" C 1.16 1.16 0 0 900
Dr 0.76 0 0
At STD N 00E0FFFF
Ne 0 ""
$EndPAD
$PAD
Po -3.97 -1.27
Sh "7" C 1.16 1.16 0 0 900
Dr 0.76 0 0
At STD N 00E0FFFF
Ne 0 ""
$EndPAD
$PAD
Po -3.97 1.27
Sh "8" C 1.16 1.16 0 0 900
Dr 0.76 0 0
At STD N 00E0FFFF
Ne 0 ""
$EndPAD
$PAD
Po -3.97 3.81
Sh "9" C 1.16 1.16 0 0 900
Dr 0.76 0 0
At STD N 00E0FFFF
Ne 0 ""
$EndPAD
$PAD
Po -3.97 6.35
Sh "10" C 1.16 1.16 0 0 900
Dr 0.76 0 0
At STD N 00E0FFFF
Ne 0 ""
$EndPAD
$PAD
Po -3.97 8.89
Sh "11" C 1.16 1.16 0 0 900
Dr 0.76 0 0
At STD N 00E0FFFF
Ne 0 ""
$EndPAD
$PAD
Po -3.97 11.43
Sh "12" C 1.16 1.16 0 0 900
Dr 0.76 0 0
At STD N 00E0FFFF
Ne 0 ""
$EndPAD
$PAD
Po -3.97 13.97
Sh "13" C 1.16 1.16 0 0 900
Dr 0.76 0 0
At STD N 00E0FFFF
Ne 0 ""
$EndPAD
$PAD
Po -3.97 16.51
Sh "14" C 1.16 1.16 0 0 900
Dr 0.76 0 0
At STD N 00E0FFFF
Ne 0 ""
$EndPAD
$PAD
Po 3.97 16.51
Sh "15" C 1.16 1.16 0 0 900
Dr 0.76 0 0
At STD N 00E0FFFF
Ne 0 ""
$EndPAD
$PAD
Po 3.97 13.97
Sh "16" C 1.16 1.16 0 0 900
Dr 0.76 0 0
At STD N 00E0FFFF
Ne 0 ""
$EndPAD
$PAD
Po 3.97 11.43
Sh "17" C 1.16 1.16 0 0 900
Dr 0.76 0 0
At STD N 00E0FFFF
Ne 0 ""
$EndPAD
$PAD
Po 3.97 8.89
Sh "18" C 1.16 1.16 0 0 900
Dr 0.76 0 0
At STD N 00E0FFFF
Ne 0 ""
$EndPAD
$PAD
Po 3.97 6.35
Sh "19" C 1.16 1.16 0 0 900
Dr 0.76 0 0
At STD N 00E0FFFF
Ne 0 ""
$EndPAD
$PAD
Po 3.97 3.81
Sh "20" C 1.16 1.16 0 0 900
Dr 0.76 0 0
At STD N 00E0FFFF
Ne 0 ""
$EndPAD
$PAD
Po 3.97 1.27
Sh "21" C 1.16 1.16 0 0 900
Dr 0.76 0 0
At STD N 00E0FFFF
Ne 0 ""
$EndPAD
$PAD
Po 3.97 -1.27
Sh "22" C 1.16 1.16 0 0 900
Dr 0.76 0 0
At STD N 00E0FFFF
Ne 0 ""
$EndPAD
$PAD
Po 3.97 -3.81
Sh "23" C 1.16 1.16 0 0 900
Dr 0.76 0 0
At STD N 00E0FFFF
Ne 0 ""
$EndPAD
$PAD
Po 3.97 -6.35
Sh "24" C 1.16 1.16 0 0 900
Dr 0.76 0 0
At STD N 00E0FFFF
Ne 0 ""
$EndPAD
$PAD
Po 3.97 -8.89
Sh "25" C 1.16 1.16 0 0 900
Dr 0.76 0 0
At STD N 00E0FFFF
Ne 0 ""
$EndPAD
$PAD
Po 3.97 -11.43
Sh "26" C 1.16 1.16 0 0 900
Dr 0.76 0 0
At STD N 00E0FFFF
Ne 0 ""
$EndPAD
$PAD
Po 3.97 -13.97
Sh "27" C 1.16 1.16 0 0 900
Dr 0.76 0 0
At STD N 00E0FFFF
Ne 0 ""
$EndPAD
$PAD
Po 3.97 -16.51
Sh "28" C 1.16 1.16 0 0 900
Dr 0.76 0 0
At STD N 00E0FFFF
Ne 0 ""
$EndPAD
$EndMODULE DIP794W56P254L3467H457Q28N
$EndLIBRARY
