PCBNEW-LibModule-V1  2020-08-23 15:41:06
# encoding utf-8
Units mm
$INDEX
23115864
$EndINDEX
$MODULE 23115864
Po 0 0 0 15 5f428002 00000000 ~~
Li 23115864
Cd 2311586-4-2
Kw Connector
Sc 0
At STD
AR 
Op 0 0 0
T0 -4.315 8.535 1.27 1.27 0 0.254 N V 21 N "J**"
T1 -4.315 8.535 1.27 1.27 0 0.254 N I 21 N "23115864"
DS -19.715 19.97 11.085 19.97 0.2 24
DS 11.085 19.97 11.085 -1.83 0.2 24
DS 11.085 -1.83 -19.715 -1.83 0.2 24
DS -19.715 -1.83 -19.715 19.97 0.2 24
DS -19.715 -1.83 11.085 -1.83 0.1 21
DS 11.085 -1.83 11.085 19.97 0.1 21
DS 11.085 19.97 -19.715 19.97 0.1 21
DS -19.715 19.97 -19.715 -1.83 0.1 21
DS -20.715 -3.9 12.085 -3.9 0.1 24
DS 12.085 -3.9 12.085 20.97 0.1 24
DS 12.085 20.97 -20.715 20.97 0.1 24
DS -20.715 20.97 -20.715 -3.9 0.1 24
DS 0 -2.9 0 -2.9 0.2 21
DS 0 -2.8 0 -2.8 0.2 21
DS 0 -2.9 0 -2.9 0.2 21
DA 4.1633363423443E-17 -2.85 0.000 -2.9 -1800 0.2 21
DA 4.1633363423443E-17 -2.85 0.000 -2.8 -1800 0.2 21
DA 4.1633363423443E-17 -2.85 0.000 -2.9 -1800 0.2 21
$PAD
Po 0.000 -0
Sh "1" C 1.785 1.785 0 0 900
Dr 1.19 0 0
At STD N 00E0FFFF
Ne 0 ""
$EndPAD
$PAD
Po -2.290 -0
Sh "2" C 1.785 1.785 0 0 900
Dr 1.19 0 0
At STD N 00E0FFFF
Ne 0 ""
$EndPAD
$PAD
Po -4.580 -0
Sh "3" C 1.785 1.785 0 0 900
Dr 1.19 0 0
At STD N 00E0FFFF
Ne 0 ""
$EndPAD
$PAD
Po -6.870 -0
Sh "4" C 1.785 1.785 0 0 900
Dr 1.19 0 0
At STD N 00E0FFFF
Ne 0 ""
$EndPAD
$PAD
Po -9.160 -0
Sh "5" C 1.785 1.785 0 0 900
Dr 1.19 0 0
At STD N 00E0FFFF
Ne 0 ""
$EndPAD
$PAD
Po 1.145 2.54
Sh "6" C 1.785 1.785 0 0 900
Dr 1.19 0 0
At STD N 00E0FFFF
Ne 0 ""
$EndPAD
$PAD
Po -1.145 2.54
Sh "7" C 1.785 1.785 0 0 900
Dr 1.19 0 0
At STD N 00E0FFFF
Ne 0 ""
$EndPAD
$PAD
Po -3.435 2.54
Sh "8" C 1.785 1.785 0 0 900
Dr 1.19 0 0
At STD N 00E0FFFF
Ne 0 ""
$EndPAD
$PAD
Po -5.725 2.54
Sh "9" C 1.785 1.785 0 0 900
Dr 1.19 0 0
At STD N 00E0FFFF
Ne 0 ""
$EndPAD
$PAD
Po -8.015 2.54
Sh "10" C 1.785 1.785 0 0 900
Dr 1.19 0 0
At STD N 00E0FFFF
Ne 0 ""
$EndPAD
$PAD
Po 0.000 5.08
Sh "11" C 1.785 1.785 0 0 900
Dr 1.19 0 0
At STD N 00E0FFFF
Ne 0 ""
$EndPAD
$PAD
Po -2.290 5.08
Sh "12" C 1.785 1.785 0 0 900
Dr 1.19 0 0
At STD N 00E0FFFF
Ne 0 ""
$EndPAD
$PAD
Po -4.580 5.08
Sh "13" C 1.785 1.785 0 0 900
Dr 1.19 0 0
At STD N 00E0FFFF
Ne 0 ""
$EndPAD
$PAD
Po -6.870 5.08
Sh "14" C 1.785 1.785 0 0 900
Dr 1.19 0 0
At STD N 00E0FFFF
Ne 0 ""
$EndPAD
$PAD
Po -9.160 5.08
Sh "15" C 1.785 1.785 0 0 900
Dr 1.19 0 0
At STD N 00E0FFFF
Ne 0 ""
$EndPAD
$PAD
Po 8.185 2.54
Sh "MH1" C 4.770 4.770 0 0 900
Dr 3.18 0 0
At STD N 00E0FFFF
Ne 0 ""
$EndPAD
$PAD
Po -16.815 2.54
Sh "MH2" C 4.770 4.770 0 0 900
Dr 3.18 0 0
At STD N 00E0FFFF
Ne 0 ""
$EndPAD
$EndMODULE 23115864
$EndLIBRARY
