PCBNEW-LibModule-V1  2020-10-29 17:46:17
# encoding utf-8
Units mm
$INDEX
DS28EC20
$EndINDEX
$MODULE DS28EC20
Po 0 0 0 15 5f9affe9 00000000 ~~
Li DS28EC20
Cd TO-92 21-0248_2020
Kw Integrated Circuit
Sc 0
At STD
AR 
Op 0 0 0
T0 0.963 -0.95 1.27 1.27 0 0.254 N V 21 N "IC**"
T1 0.963 -0.95 1.27 1.27 0 0.254 N I 21 N "DS28EC20"
DS -2.95 -3.92 4.875 -3.92 0.1 24
DS 4.875 -3.92 4.875 2.02 0.1 24
DS 4.875 2.02 -2.95 2.02 0.1 24
DS -2.95 2.02 -2.95 -3.92 0.1 24
DS -1.9 0.1 -1.9 0.1 0.2 21
DS -1.9 -0 -1.9 -0 0.2 21
DS -1.9 0.1 -1.9 0.1 0.2 21
DS -0.8 1.14 3.6 1.14 0.2 24
DS 3.6 1.14 3.75 0.14 0.2 24
DS 3.75 0.14 3.75 0.14 0.2 24
DS -0.95 0.14 -0.8 1.14 0.2 24
DS -0.8 1.14 3.6 1.14 0.1 21
DS 3.6 1.14 3.75 0.14 0.1 21
DS 3.75 0.14 3.75 0.14 0.1 21
DS -0.95 0.14 -0.8 1.14 0.1 21
DA -1.9 0.05 -1.900 0.1 -1800 0.2 21
DA -1.9 0.05 -1.900 -0 -1800 0.2 21
DA -1.9 0.05 -1.900 0.1 -1800 0.2 21
DA 1.4005 -0.2125 3.750 0.14 -1971 0.2 24
DA 1.4005 -0.2125 3.750 0.14 -1971 0.1 21
$PAD
Po 0.000 -0
Sh "1" C 1.478 1.478 0 0 900
Dr 0.95 0 0
At STD N 00E0FFFF
Ne 0 ""
$EndPAD
$PAD
Po 1.400 -1.4
Sh "2" C 1.478 1.478 0 0 900
Dr 0.95 0 0
At STD N 00E0FFFF
Ne 0 ""
$EndPAD
$PAD
Po 2.800 -0
Sh "3" C 1.478 1.478 0 0 900
Dr 0.95 0 0
At STD N 00E0FFFF
Ne 0 ""
$EndPAD
$EndMODULE DS28EC20
$EndLIBRARY
