(module MD-60S (layer F.Cu) (tedit 5F9FDC00)
  (fp_text reference J7 (at 1.3335 -9.5885) (layer F.SilkS)
    (effects (font (size 1 1) (thickness 0.15)))
  )
  (fp_text value MD-60S (at 1.2954 1.2446) (layer F.SilkS)
    (effects (font (size 1 1) (thickness 0.15)))
  )
  (fp_circle (center -6.4643 0) (end -6.0833 0) (layer B.SilkS) (width 0.1524))
  (fp_circle (center -6.4643 0) (end -6.0833 0) (layer F.SilkS) (width 0.1524))
  (fp_circle (center 0 -1.778) (end 0.381 -1.778) (layer F.Fab) (width 0.1524))
  (fp_line (start 8.5471 -8.759401) (end -5.9563 -8.759401) (layer F.CrtYd) (width 0.1524))
  (fp_line (start 8.5471 4.143799) (end 8.5471 -8.759401) (layer F.CrtYd) (width 0.1524))
  (fp_line (start -5.9563 4.143799) (end 8.5471 4.143799) (layer F.CrtYd) (width 0.1524))
  (fp_line (start -5.9563 -8.759401) (end -5.9563 4.143799) (layer F.CrtYd) (width 0.1524))
  (fp_line (start -5.7023 -8.505401) (end -5.7023 3.889799) (layer F.Fab) (width 0.1524))
  (fp_line (start 8.2931 -8.505401) (end -5.7023 -8.505401) (layer F.Fab) (width 0.1524))
  (fp_line (start 8.2931 3.889799) (end 8.2931 -8.505401) (layer F.Fab) (width 0.1524))
  (fp_line (start -5.7023 3.889799) (end 8.2931 3.889799) (layer F.Fab) (width 0.1524))
  (fp_line (start -5.8293 -8.632401) (end -5.8293 4.016799) (layer F.SilkS) (width 0.1524))
  (fp_line (start 8.4201 -8.632401) (end -5.8293 -8.632401) (layer F.SilkS) (width 0.1524))
  (fp_line (start 8.4201 4.016799) (end 8.4201 -8.632401) (layer F.SilkS) (width 0.1524))
  (fp_line (start -5.8293 4.016799) (end 8.4201 4.016799) (layer F.SilkS) (width 0.1524))
  (fp_text user * (at 0 0) (layer F.Fab)
    (effects (font (size 1 1) (thickness 0.15)))
  )
  (fp_text user * (at 0 0) (layer F.SilkS)
    (effects (font (size 1 1) (thickness 0.15)))
  )
  (fp_text user "Copyright 2016 Accelerated Designs. All rights reserved." (at 0 0) (layer Cmts.User)
    (effects (font (size 0.127 0.127) (thickness 0.002)))
  )
  (pad 6 thru_hole circle (at 4.699 2.4892) (size 1.397 1.397) (drill 0.889) (layers *.Cu *.Mask))
  (pad 4 thru_hole circle (at 4.699 0) (size 1.397 1.397) (drill 0.889) (layers *.Cu *.Mask))
  (pad 2 thru_hole circle (at 2.5908 0) (size 1.397 1.397) (drill 0.889) (layers *.Cu *.Mask))
  (pad 1 thru_hole circle (at 0 0) (size 1.397 1.397) (drill 0.889) (layers *.Cu *.Mask))
  (pad 5 thru_hole circle (at -2.1082 2.4892) (size 1.397 1.397) (drill 0.889) (layers *.Cu *.Mask))
  (pad 3 thru_hole circle (at -2.1082 0) (size 1.397 1.397) (drill 0.889) (layers *.Cu *.Mask))
  (pad 7 thru_hole oval (at 1.2954 -3.805428) (size 3 2) (drill oval 2.5 0.7) (layers *.Cu *.Mask))
  (pad 7 thru_hole oval (at -5.7023 -2.9 90) (size 3 2) (drill oval 2.5 0.75) (layers *.Cu *.Mask))
  (pad 7 thru_hole oval (at 8.2931 -2.9 90) (size 3 2) (drill oval 2.5 0.75) (layers *.Cu *.Mask))
)
