PCBNEW-LibModule-V1  2020-09-25 16:02:19
# encoding utf-8
Units mm
$INDEX
PLCC127P2521X2521X457-68N
$EndINDEX
$MODULE PLCC127P2521X2521X457-68N
Po 0 0 0 15 5f6e067b 00000000 ~~
Li PLCC127P2521X2521X457-68N
Cd 68 PLCC
Kw Integrated Circuit
Sc 0
At SMD
AR 
Op 0 0 0
T0 0 0 1.27 1.27 0 0.254 N V 21 N "IC**"
T1 0 0 1.27 1.27 0 0.254 N I 21 N "PLCC127P2521X2521X457-68N"
DS -12.975 -12.975 12.975 -12.975 0.05 24
DS 12.975 -12.975 12.975 12.975 0.05 24
DS 12.975 12.975 -12.975 12.975 0.05 24
DS -12.975 12.975 -12.975 -12.975 0.05 24
DS -12.115 -12.115 12.115 -12.115 0.1 24
DS 12.115 -12.115 12.115 12.115 0.1 24
DS 12.115 12.115 -12.115 12.115 0.1 24
DS -12.115 12.115 -12.115 -12.115 0.1 24
DS -10.285 -10.285 10.285 -10.285 0.2 21
DS 10.285 -10.285 10.285 10.285 0.2 21
DS 10.285 10.285 -10.285 10.285 0.2 21
DS -10.285 10.285 -10.285 -10.285 0.2 21
DC 0 -10.068 0 -10.068 0.254 24
DC 0 -13.927 0 -13.292 0.254 21
$PAD
Po 0 -11.68
Sh "1" O 1 2.09 0 0 0
At SMD N 00888000
Ne 0 ""
$EndPAD
$PAD
Po -1.27 -11.68
Sh "2" O 1 2.09 0 0 0
At SMD N 00888000
Ne 0 ""
$EndPAD
$PAD
Po -2.54 -11.68
Sh "3" O 1 2.09 0 0 0
At SMD N 00888000
Ne 0 ""
$EndPAD
$PAD
Po -3.81 -11.68
Sh "4" O 1 2.09 0 0 0
At SMD N 00888000
Ne 0 ""
$EndPAD
$PAD
Po -5.08 -11.68
Sh "5" O 1 2.09 0 0 0
At SMD N 00888000
Ne 0 ""
$EndPAD
$PAD
Po -6.35 -11.68
Sh "6" O 1 2.09 0 0 0
At SMD N 00888000
Ne 0 ""
$EndPAD
$PAD
Po -7.62 -11.68
Sh "7" O 1 2.09 0 0 0
At SMD N 00888000
Ne 0 ""
$EndPAD
$PAD
Po -8.89 -11.68
Sh "8" O 1 2.09 0 0 0
At SMD N 00888000
Ne 0 ""
$EndPAD
$PAD
Po -10.16 -11.68
Sh "9" O 1 2.09 0 0 0
At SMD N 00888000
Ne 0 ""
$EndPAD
$PAD
Po -11.68 -10.16
Sh "10" O 1 2.09 0 0 900
At SMD N 00888000
Ne 0 ""
$EndPAD
$PAD
Po -11.68 -8.89
Sh "11" O 1 2.09 0 0 900
At SMD N 00888000
Ne 0 ""
$EndPAD
$PAD
Po -11.68 -7.62
Sh "12" O 1 2.09 0 0 900
At SMD N 00888000
Ne 0 ""
$EndPAD
$PAD
Po -11.68 -6.35
Sh "13" O 1 2.09 0 0 900
At SMD N 00888000
Ne 0 ""
$EndPAD
$PAD
Po -11.68 -5.08
Sh "14" O 1 2.09 0 0 900
At SMD N 00888000
Ne 0 ""
$EndPAD
$PAD
Po -11.68 -3.81
Sh "15" O 1 2.09 0 0 900
At SMD N 00888000
Ne 0 ""
$EndPAD
$PAD
Po -11.68 -2.54
Sh "16" O 1 2.09 0 0 900
At SMD N 00888000
Ne 0 ""
$EndPAD
$PAD
Po -11.68 -1.27
Sh "17" O 1 2.09 0 0 900
At SMD N 00888000
Ne 0 ""
$EndPAD
$PAD
Po -11.68 0
Sh "18" O 1 2.09 0 0 900
At SMD N 00888000
Ne 0 ""
$EndPAD
$PAD
Po -11.68 1.27
Sh "19" O 1 2.09 0 0 900
At SMD N 00888000
Ne 0 ""
$EndPAD
$PAD
Po -11.68 2.54
Sh "20" O 1 2.09 0 0 900
At SMD N 00888000
Ne 0 ""
$EndPAD
$PAD
Po -11.68 3.81
Sh "21" O 1 2.09 0 0 900
At SMD N 00888000
Ne 0 ""
$EndPAD
$PAD
Po -11.68 5.08
Sh "22" O 1 2.09 0 0 900
At SMD N 00888000
Ne 0 ""
$EndPAD
$PAD
Po -11.68 6.35
Sh "23" O 1 2.09 0 0 900
At SMD N 00888000
Ne 0 ""
$EndPAD
$PAD
Po -11.68 7.62
Sh "24" O 1 2.09 0 0 900
At SMD N 00888000
Ne 0 ""
$EndPAD
$PAD
Po -11.68 8.89
Sh "25" O 1 2.09 0 0 900
At SMD N 00888000
Ne 0 ""
$EndPAD
$PAD
Po -11.68 10.16
Sh "26" O 1 2.09 0 0 900
At SMD N 00888000
Ne 0 ""
$EndPAD
$PAD
Po -10.16 11.68
Sh "27" O 1 2.09 0 0 0
At SMD N 00888000
Ne 0 ""
$EndPAD
$PAD
Po -8.89 11.68
Sh "28" O 1 2.09 0 0 0
At SMD N 00888000
Ne 0 ""
$EndPAD
$PAD
Po -7.62 11.68
Sh "29" O 1 2.09 0 0 0
At SMD N 00888000
Ne 0 ""
$EndPAD
$PAD
Po -6.35 11.68
Sh "30" O 1 2.09 0 0 0
At SMD N 00888000
Ne 0 ""
$EndPAD
$PAD
Po -5.08 11.68
Sh "31" O 1 2.09 0 0 0
At SMD N 00888000
Ne 0 ""
$EndPAD
$PAD
Po -3.81 11.68
Sh "32" O 1 2.09 0 0 0
At SMD N 00888000
Ne 0 ""
$EndPAD
$PAD
Po -2.54 11.68
Sh "33" O 1 2.09 0 0 0
At SMD N 00888000
Ne 0 ""
$EndPAD
$PAD
Po -1.27 11.68
Sh "34" O 1 2.09 0 0 0
At SMD N 00888000
Ne 0 ""
$EndPAD
$PAD
Po 0 11.68
Sh "35" O 1 2.09 0 0 0
At SMD N 00888000
Ne 0 ""
$EndPAD
$PAD
Po 1.27 11.68
Sh "36" O 1 2.09 0 0 0
At SMD N 00888000
Ne 0 ""
$EndPAD
$PAD
Po 2.54 11.68
Sh "37" O 1 2.09 0 0 0
At SMD N 00888000
Ne 0 ""
$EndPAD
$PAD
Po 3.81 11.68
Sh "38" O 1 2.09 0 0 0
At SMD N 00888000
Ne 0 ""
$EndPAD
$PAD
Po 5.08 11.68
Sh "39" O 1 2.09 0 0 0
At SMD N 00888000
Ne 0 ""
$EndPAD
$PAD
Po 6.35 11.68
Sh "40" O 1 2.09 0 0 0
At SMD N 00888000
Ne 0 ""
$EndPAD
$PAD
Po 7.62 11.68
Sh "41" O 1 2.09 0 0 0
At SMD N 00888000
Ne 0 ""
$EndPAD
$PAD
Po 8.89 11.68
Sh "42" O 1 2.09 0 0 0
At SMD N 00888000
Ne 0 ""
$EndPAD
$PAD
Po 10.16 11.68
Sh "43" O 1 2.09 0 0 0
At SMD N 00888000
Ne 0 ""
$EndPAD
$PAD
Po 11.68 10.16
Sh "44" O 1 2.09 0 0 900
At SMD N 00888000
Ne 0 ""
$EndPAD
$PAD
Po 11.68 8.89
Sh "45" O 1 2.09 0 0 900
At SMD N 00888000
Ne 0 ""
$EndPAD
$PAD
Po 11.68 7.62
Sh "46" O 1 2.09 0 0 900
At SMD N 00888000
Ne 0 ""
$EndPAD
$PAD
Po 11.68 6.35
Sh "47" O 1 2.09 0 0 900
At SMD N 00888000
Ne 0 ""
$EndPAD
$PAD
Po 11.68 5.08
Sh "48" O 1 2.09 0 0 900
At SMD N 00888000
Ne 0 ""
$EndPAD
$PAD
Po 11.68 3.81
Sh "49" O 1 2.09 0 0 900
At SMD N 00888000
Ne 0 ""
$EndPAD
$PAD
Po 11.68 2.54
Sh "50" O 1 2.09 0 0 900
At SMD N 00888000
Ne 0 ""
$EndPAD
$PAD
Po 11.68 1.27
Sh "51" O 1 2.09 0 0 900
At SMD N 00888000
Ne 0 ""
$EndPAD
$PAD
Po 11.68 0
Sh "52" O 1 2.09 0 0 900
At SMD N 00888000
Ne 0 ""
$EndPAD
$PAD
Po 11.68 -1.27
Sh "53" O 1 2.09 0 0 900
At SMD N 00888000
Ne 0 ""
$EndPAD
$PAD
Po 11.68 -2.54
Sh "54" O 1 2.09 0 0 900
At SMD N 00888000
Ne 0 ""
$EndPAD
$PAD
Po 11.68 -3.81
Sh "55" O 1 2.09 0 0 900
At SMD N 00888000
Ne 0 ""
$EndPAD
$PAD
Po 11.68 -5.08
Sh "56" O 1 2.09 0 0 900
At SMD N 00888000
Ne 0 ""
$EndPAD
$PAD
Po 11.68 -6.35
Sh "57" O 1 2.09 0 0 900
At SMD N 00888000
Ne 0 ""
$EndPAD
$PAD
Po 11.68 -7.62
Sh "58" O 1 2.09 0 0 900
At SMD N 00888000
Ne 0 ""
$EndPAD
$PAD
Po 11.68 -8.89
Sh "59" O 1 2.09 0 0 900
At SMD N 00888000
Ne 0 ""
$EndPAD
$PAD
Po 11.68 -10.16
Sh "60" O 1 2.09 0 0 900
At SMD N 00888000
Ne 0 ""
$EndPAD
$PAD
Po 10.16 -11.68
Sh "61" O 1 2.09 0 0 0
At SMD N 00888000
Ne 0 ""
$EndPAD
$PAD
Po 8.89 -11.68
Sh "62" O 1 2.09 0 0 0
At SMD N 00888000
Ne 0 ""
$EndPAD
$PAD
Po 7.62 -11.68
Sh "63" O 1 2.09 0 0 0
At SMD N 00888000
Ne 0 ""
$EndPAD
$PAD
Po 6.35 -11.68
Sh "64" O 1 2.09 0 0 0
At SMD N 00888000
Ne 0 ""
$EndPAD
$PAD
Po 5.08 -11.68
Sh "65" O 1 2.09 0 0 0
At SMD N 00888000
Ne 0 ""
$EndPAD
$PAD
Po 3.81 -11.68
Sh "66" O 1 2.09 0 0 0
At SMD N 00888000
Ne 0 ""
$EndPAD
$PAD
Po 2.54 -11.68
Sh "67" O 1 2.09 0 0 0
At SMD N 00888000
Ne 0 ""
$EndPAD
$PAD
Po 1.27 -11.68
Sh "68" O 1 2.09 0 0 0
At SMD N 00888000
Ne 0 ""
$EndPAD
$EndMODULE PLCC127P2521X2521X457-68N
$EndLIBRARY
